…
```r
dna_conc <- sample_data %>% select(Sample ,QubitPreClean, TapestationPostClean, FinalLibraryConc, TotalDNAForLibPrep)

dna_conc
```

```
## # A tibble: 83 × 5
##    Sample QubitPreClean TapestationPostClean FinalLibraryConc TotalDNAForLibPrep
##    <chr>          <dbl>                <dbl>            <dbl>              <dbl>
##  1 10A             3.32                1.22              47.5              22.0 
##  2 11A             4.74               12.7               55               229.  
##  3 12B             0.82                0.505             27.3               9.09
##  4 13B             2.79                5.71              47.8             103.  
##  5 14A             0.6                 0.388             17.9               6.98
##  6 16B            14.7                17.7               50               319.  
##  7 17A             2.09                1.52              27                27.4 
##  8 17B             1.86                2.12              36                38.2 
##  9 18A             2.09                1.38              40.4              24.8 
## 10 18B             2.1                 4.28              41.9              77.0 
## # … with 73 more rows
```
…
