…
``` r
ggsave("final_figures/Figure_6_PCA_1-3_fracs_ofvariance.pdf", width = 8, height = 4)
```

# PCA with clinical annotation CAP-TRG

``` r
clinical_df_all
```

    ## # A tibble: 34 × 8
    ##    patient_id sample_id   Age Gender CAP_TRG pT       pN batch
    ##    <chr>      <chr>     <dbl> <chr>  <chr>   <chr> <dbl> <fct>
    ##  1 10         10A          62 Female Unknown <NA>     NA 1    
    ##  2 11         11A          64 Male   2       T3        1 1    
    ##  3 14         14A          71 Male   0       <NA>     NA 1    
    ##  4 17         17A          67 Male   3       ypT3      2 1    
    ##  5 18         18A          64 Male   1       ypT1      0 1    
    ##  6 19         19A          56 Male   Unknown <NA>     NA 1    
    ##  7 80         80A          56 Male   0       T0        0 1    
    ##  8 81         81A          57 Male   3       T2        0 1    
    ##  9 82         82A          75 Male   0       T0        2 1    
    ## 10 83         83A          45 Male   3       T3        1 1    
    ## # … with 24 more rows
…
#convert matrix to dataframe
b2_pc_loadings <- b2_pc_loadings %>% 
  as_tibble(rownames = "gene")

#convert matrix to dataframe
b3_pc_loadings <- b3_pc_loadings %>% 
  as_tibble(rownames = "gene")

# print the result
b1_pc_loadings
```

    ## # A tibble: 270 × 16
    ##    gene        PC1      PC2      PC3     PC4      PC5      PC6      PC7      PC8
    ##    <chr>     <dbl>    <dbl>    <dbl>   <dbl>    <dbl>    <dbl>    <dbl>    <dbl>
    ##  1 SOX5    -0.0666  0.0277   0.0298   0.0196  0.0987   0.0488   0.0414   0.0112 
    ##  2 AHR     -0.0663  0.00256  0.00997  0.0172  0.0238  -0.104    0.00102 -0.0267 
    ##  3 HMG20A  -0.0683 -0.0124  -0.0222  -0.0148  0.0861   0.0150  -0.0796  -0.0488 
    ##  4 CEBPA   -0.0572 -0.0502  -0.0402   0.0922  0.00723  0.0622   0.00267 -0.154  
    ##  5 NR4A1   -0.0674  0.0350  -0.0241  -0.0592 -0.0555   0.0678  -0.0793  -0.0115 
    ##  6 HNF4G   -0.0695 -0.00774  0.0376  -0.0583  0.0447   0.00963  0.0127   0.0185 
    ##  7 ZBTB2   -0.0730  0.0380   0.0248  -0.0110 -0.0251   0.0245  -0.0328   0.0205 
    ##  8 PRDM9   -0.0588 -0.00799 -0.0807  -0.0199 -0.123    0.108    0.0292   0.0606 
    ##  9 NEUROD1 -0.0595 -0.0507   0.0166  -0.0636  0.0117  -0.0556  -0.0304  -0.117  
    ## 10 TEAD1   -0.0687 -0.0498  -0.00976  0.0444  0.0236  -0.0350  -0.106   -0.00968
    ## # … with 260 more rows, and 7 more variables: PC9 <dbl>, PC10 <dbl>,
    ## #   PC11 <dbl>, PC12 <dbl>, PC13 <dbl>, PC14 <dbl>, PC15 <dbl>

``` r
b2_pc_loadings
```

    ## # A tibble: 270 × 10
    ##    gene       PC1      PC2      PC3      PC4      PC5      PC6      PC7      PC8
    ##    <chr>    <dbl>    <dbl>    <dbl>    <dbl>    <dbl>    <dbl>    <dbl>    <dbl>
    ##  1 SOX5   -0.0701  0.0180  -0.00955 -2.94e-2  0.0435  -1.09e-2  0.0439  -0.00673
    ##  2 AHR    -0.0668 -0.0308  -0.0577   4.87e-2  0.00882  1.99e-2 -0.0110   0.0352 
    ##  3 HMG20A -0.0699  0.0135  -0.0159  -4.25e-2  0.0233   4.65e-4  0.0443   0.0774 
    ##  4 CEBPA  -0.0703  0.0156   0.00620 -2.61e-4  0.0846   1.09e-2  0.0151  -0.00558
    ##  5 NR4A1  -0.0695  0.0218   0.0359   4.14e-4  0.0382   2.76e-2  0.0330  -0.0280 
    ##  6 HNF4G  -0.0700  0.0226  -0.00366 -1.86e-2  0.0396  -4.97e-2  0.0175  -0.0166 
    ##  7 ZBTB2  -0.0644 -0.0387   0.0778   1.65e-2 -0.0656   8.01e-2 -0.0209   0.0342 
    ##  8 PRDM9  -0.0511 -0.0881  -0.0866  -4.26e-3 -0.0323  -8.80e-3  0.180    0.00783
    ##  9 NEURO… -0.0681  0.00266  0.0278  -7.34e-2  0.0481   1.13e-1 -0.0668   0.0411 
    ## 10 TEAD1  -0.0705  0.00442 -0.0177  -7.87e-3  0.0319   7.76e-2 -0.00242  0.0570 
    ## # … with 260 more rows, and 1 more variable: PC9 <dbl>

``` r
b3_pc_loadings
```

    ## # A tibble: 270 × 11
    ##    gene       PC1      PC2      PC3      PC4      PC5      PC6      PC7      PC8
    ##    <chr>    <dbl>    <dbl>    <dbl>    <dbl>    <dbl>    <dbl>    <dbl>    <dbl>
    ##  1 SOX5   -0.0694  0.0408  -0.00171 -0.0103   0.0556  -0.103    0.0433   0.0160 
    ##  2 AHR    -0.0693 -0.0205   0.0103   0.0468   0.0575  -0.0102  -0.0727  -0.0214 
    ##  3 HMG20A -0.0709  0.0385  -0.0470   0.0490   0.00592 -0.0362  -0.0220  -0.00137
    ##  4 CEBPA  -0.0589  0.107   -0.0465   0.0218  -0.0521   0.0506  -0.00644 -0.00210
    ##  5 NR4A1  -0.0628  0.0801   0.0248   0.0449  -0.0930  -0.00861  0.0623   0.0136 
    ##  6 HNF4G  -0.0552 -0.00278 -0.0618  -0.0576   0.125   -0.0863   0.0682   0.0514 
    ##  7 ZBTB2  -0.0619 -0.0634  -0.0120  -0.107   -0.0655  -0.0605  -0.0373  -0.0104 
    ##  8 PRDM9  -0.0515  0.0151  -0.0721  -0.0780   0.126    0.0768   0.125    0.0541 
    ##  9 NEURO… -0.0567  0.0786   0.0352  -0.115   -0.0217   0.0425   0.0528   0.00911
    ## 10 TEAD1  -0.0538 -0.0426  -0.0455   0.00614 -0.00819 -0.200    0.0110   0.0627 
    ## # … with 260 more rows, and 2 more variables: PC9 <dbl>, PC10 <dbl>
…
