…
    ## Joining, by = "Gene_id"

``` r
# review any TSS site that are not linked correctly.
tss_missing <- crc_drivers %>% anti_join(tss)
```

    ## Joining, by = "Gene_id"

``` r
tss_missing
```

    ## # A tibble: 29 × 1
    ##    Gene_id 
    ##    <chr>   
    ##  1 ACKR3   
    ##  2 ADGRB1  
    ##  3 AFF3    
    ##  4 CEBPA   
    ##  5 CNOT9   
    ##  6 DCAF12L2
    ##  7 FAM186A 
    ##  8 FANCF   
    ##  9 FAT3    
    ## 10 FOXD4L1 
    ## # … with 19 more rows
…
